{
	"pages": [{
			"path": "pages/login/login",
			"style": {
				
				"navigationBarTitleText": "登录"
			}
		},{
			"path": "pages/home/home",
			"style": {
				
				"navigationBarTitleText": "吾家医",
				"backgroundColor": "#ffffff",
				"navigationStyle": "custom",
				"app-plus": {
					"titleNView": false,
					"bounce": "vertical"
				}
			}
		},{
			"path": "pages/my/my",
			"style": {
				"navigationBarTitleText": "我的",
				"navigationStyle": "custom",
				"app-plus": {
					"titleNView": false,
					"bounce": "vertical"
				}
			}
		},{
			"path": "pages/my/myInfo",
			"style": {
				
				"navigationBarTitleText": "个人信息"
			}
		},{
			"path": "pages/my/editName",
			"style": {
				
				"navigationBarTitleText": "修改姓名"
			}
		},{
			"path": "pages/my/editAvatar",
			"style": {
				
				"navigationBarTitleText": "修改头像"
			}
		},{
			"path": "pages/my/editPhone",
			"style": {
				
				"navigationBarTitleText": "修改手机"
			}
		},{
			"path": "pages/service/consultList",
			"style": {
				"navigationBarTitleText": "咨询记录",
				"enablePullDownRefresh": true
			}
		},{
			"path": "pages/service/appraise",
			"style": {	
				"navigationBarTitleText": "评价"
			}
		},{
			"path": "pages/service/sectionList",
			"style": {
				"navigationBarTitleText": "科室列表",
				"enablePullDownRefresh": true,
				"onReachBottomDistance": 50,
				"backgroundColor": "#ffffff"
			}
		},{
			"path": "pages/service/doctorList",
			"style": {
				"navigationBarTitleText": "医生列表",
				"enablePullDownRefresh": true,
				"onReachBottomDistance": 50,
				"backgroundColor": "#ffffff"
			}
		},{
			"path": "pages/service/sectionDetail",
			"style": {
				"navigationBarTitleText": "科室详情",
				"backgroundColor": "#ffffff"
			}
		},{
			"path": "pages/service/doctorDetail",
			"style": {
				"navigationBarTitleText": "医生详情",
				"backgroundColor": "#ffffff"
			}
		},{
			"path": "pages/service/serviceDetail",
			"style": {
				"navigationBarTitleText": "服务详情",
				"enablePullDownRefresh": true,
				"onReachBottomDistance": 50,
				"backgroundColor": "#ffffff"
			}
		},{
			"path": "pages/service/servicePackage",
			"style": {
				"navigationBarTitleText": "服务包",
				"enablePullDownRefresh": true,
				"onReachBottomDistance": 50,
				"backgroundColor": "#ffffff"
			}
		},{
			"path": "pages/service/servicePackageDetail",
			"style": {
				"navigationBarTitleText": "服务包详情",
				"enablePullDownRefresh": true,
				"onReachBottomDistance": 50,
				"backgroundColor": "#ffffff"
			}
		},{
			"path": "pages/service/imageConsult",
			"style": {
				"navigationBarTitleText": "图文咨询",
				"enablePullDownRefresh": true,
				"onReachBottomDistance": 50,
				"backgroundColor": "#ffffff"
			}
		},{
			"path": "pages/my/selfManagement",
			"style": {
				"navigationBarTitleText": "自我管理",
				"enablePullDownRefresh": true,
				"onReachBottomDistance": 50,
				"backgroundColor": "#ffffff"
			}
		},{
			"path": "pages/my/healthRecords",
			"style": {
				"navigationBarTitleText": "健康档案",
				"enablePullDownRefresh": true,
				"onReachBottomDistance": 50,
				"backgroundColor": "#ffffff"
			}
		},{
			"path": "pages/my/orderList",
			"style": {
				"navigationBarTitleText": "订单",
				"enablePullDownRefresh": true,
				"onReachBottomDistance": 50,
				"backgroundColor": "#ffffff"
			}
		},{
			"path": "pages/my/orderDetail",
			"style": {
				"navigationBarTitleText": "订单详情",
				"enablePullDownRefresh": true,
				"onReachBottomDistance": 50,
				"backgroundColor": "#ffffff"
			}
		},{
			"path": "pages/my/diagnosisList",
			"style": {
				"navigationBarTitleText": "诊疗记录",
				"enablePullDownRefresh": true,
				"onReachBottomDistance": 50,
				"backgroundColor": "#ffffff"
			}
		},{
			"path": "pages/my/diagnosisDetail",
			"style": {
				"navigationBarTitleText": "诊疗详情",
				"enablePullDownRefresh": true,
				"onReachBottomDistance": 50,
				"backgroundColor": "#ffffff"
			}
		},{
			"path": "pages/news/newsList",
			"style": {
				"navigationBarTitleText": "资讯列表",
				"enablePullDownRefresh": true,
				"onReachBottomDistance": 50,
				"backgroundColor": "#ffffff"
			}
		},{
			"path": "pages/news/newsDetail",
			"style": {
				"navigationBarTitleText": "资讯详情",
				"enablePullDownRefresh": true,
				"onReachBottomDistance": 50,
				"backgroundColor": "#ffffff"
			}
		},{
			"path": "pages/news/noteList",
			"style": {
				"navigationBarTitleText": "系统消息",
				"enablePullDownRefresh": true,
				"onReachBottomDistance": 50,
				"backgroundColor": "#ffffff"
			}
		},{
			"path": "pages/news/noteDetail",
			"style": {
				"navigationBarTitleText": "消息详情",
				"enablePullDownRefresh": true,
				"onReachBottomDistance": 50,
				"backgroundColor": "#ffffff"
			}
		},{
			"path": "pages/news/noteOrderList",
			"style": {
				"navigationBarTitleText": "订单消息",
				"enablePullDownRefresh": true,
				"onReachBottomDistance": 50,
				"backgroundColor": "#ffffff"
			}
		},{
			"path": "pages/my/evaluationList",
			"style": {
				"navigationBarTitleText": "健康评测",
				"enablePullDownRefresh": true,
				"onReachBottomDistance": 50,
				"backgroundColor": "#ffffff"
			}
		},{
			"path": "pages/my/evaluationDetail",
			"style": {
				"navigationBarTitleText": "评测详情",
				"enablePullDownRefresh": true,
				"onReachBottomDistance": 50,
				"backgroundColor": "#ffffff"
			}
		},{
			"path": "pages/login/privacyAgreement",
			"style": {
				"navigationBarTitleText": "隐私协议",
				"enablePullDownRefresh": true,
				"onReachBottomDistance": 50,
				"backgroundColor": "#ffffff"
			}
		},{
			"path": "pages/login/serviceAgreement",
			"style": {
				"navigationBarTitleText": "服务协议",
				"enablePullDownRefresh": true,
				"onReachBottomDistance": 50,
				"backgroundColor": "#ffffff"
			}
		},{
			"path": "pages/chat/main",
			"style": {
				"navigationBarTitleText": "咨询"
			}
		},	{
			"path": "pages/call/main",
			"style": {
				"navigationBarTitleText": "视频通话"
			}
		}
		,	{
			"path": "pages/index/main",
			"style": {
				"navigationBarTitleText": "消息列表"
			}
		}
	],
	"subPackages": [
		{
			"root": "packageSubA",
			"pages": [
				{
					"path": "reservation/main",
					"style": {
						"navigationBarTitleText": "语音预约"
					}
				}
			]
		}
	],
	"globalStyle": {
		"navigationBarTextStyle": "white",
		"navigationBarTitleText": "吾家医",
		"navigationBarBackgroundColor": "#40BDD1",
		"backgroundColor": "#ffffff"
	},
	"easycom": {
			"autoscan": true,
			"custom": {
				"tui-(.*)": "@/components/thorui/tui-$1/tui-$1.vue"
			}
		},
	 "tabBar": {
	    "color": "#000000",
	    "backgroundColor": "#ededed",
	    "selectedColor": "#40bdd1",
	    "borderStyle": "white",
	
	    "list": [
	      {
	        "text": "主页",
	        "pagePath": "pages/home/home",
	        "iconPath": "static/images/home_defalut.png",
	        "selectedIconPath": "static/images/home_active.png"
	      },
	      {
	        "text": "消息",
	        "pagePath": "pages/index/main",
	        "iconPath": "static/images/note_defalut.png",
	        "selectedIconPath": "static/images/note_active.png"
	      },
	      {
	        "text": "自我管理",
	        "pagePath": "pages/my/selfManagement",
	        "iconPath": "static/images/manage_defalut.png",
	        "selectedIconPath": "static/images/manage_active.png"
	      },
	      {
	        "text": "我的",
	        "pagePath": "pages/my/my",
	        "iconPath": "./static/images/my_defalut.png",
	        "selectedIconPath": "static/images/my_active.png"
	      }
	    ],
	    "position": "bottom"
	  }
}
